[gd_scene load_steps=187 format=2]

[ext_resource path="res://Assets/B-Rye.png" type="Texture" id=1]
[ext_resource path="res://Player/Player.gd" type="Script" id=2]

[sub_resource type="AtlasTexture" id=1]
flags = 4
atlas = ExtResource( 1 )
region = Rect2( 0, 512, 64, 64 )

[sub_resource type="AtlasTexture" id=2]
flags = 4
atlas = ExtResource( 1 )
region = Rect2( 0, 128, 64, 64 )

[sub_resource type="AtlasTexture" id=3]
flags = 4
atlas = ExtResource( 1 )
region = Rect2( 64, 128, 64, 64 )

[sub_resource type="AtlasTexture" id=4]
flags = 4
atlas = ExtResource( 1 )
region = Rect2( 128, 128, 64, 64 )

[sub_resource type="AtlasTexture" id=5]
flags = 4
atlas = ExtResource( 1 )
region = Rect2( 192, 128, 64, 64 )

[sub_resource type="AtlasTexture" id=6]
flags = 4
atlas = ExtResource( 1 )
region = Rect2( 256, 128, 64, 64 )

[sub_resource type="AtlasTexture" id=7]
flags = 4
atlas = ExtResource( 1 )
region = Rect2( 320, 128, 64, 64 )

[sub_resource type="AtlasTexture" id=8]
flags = 4
atlas = ExtResource( 1 )
region = Rect2( 384, 128, 64, 64 )

[sub_resource type="AtlasTexture" id=9]
flags = 4
atlas = ExtResource( 1 )
region = Rect2( 0, 192, 64, 64 )

[sub_resource type="AtlasTexture" id=10]
flags = 4
atlas = ExtResource( 1 )
region = Rect2( 64, 192, 64, 64 )

[sub_resource type="AtlasTexture" id=11]
flags = 4
atlas = ExtResource( 1 )
region = Rect2( 128, 192, 64, 64 )

[sub_resource type="AtlasTexture" id=12]
flags = 4
atlas = ExtResource( 1 )
region = Rect2( 192, 192, 64, 64 )

[sub_resource type="AtlasTexture" id=13]
flags = 4
atlas = ExtResource( 1 )
region = Rect2( 256, 192, 64, 64 )

[sub_resource type="AtlasTexture" id=14]
flags = 4
atlas = ExtResource( 1 )
region = Rect2( 320, 192, 64, 64 )

[sub_resource type="AtlasTexture" id=15]
flags = 4
atlas = ExtResource( 1 )
region = Rect2( 384, 192, 64, 64 )

[sub_resource type="AtlasTexture" id=16]
flags = 4
atlas = ExtResource( 1 )
region = Rect2( 0, 320, 64, 64 )

[sub_resource type="AtlasTexture" id=17]
flags = 4
atlas = ExtResource( 1 )
region = Rect2( 64, 320, 64, 64 )

[sub_resource type="AtlasTexture" id=18]
flags = 4
atlas = ExtResource( 1 )
region = Rect2( 128, 320, 64, 64 )

[sub_resource type="AtlasTexture" id=19]
flags = 4
atlas = ExtResource( 1 )
region = Rect2( 192, 320, 64, 64 )

[sub_resource type="AtlasTexture" id=20]
flags = 4
atlas = ExtResource( 1 )
region = Rect2( 256, 320, 64, 64 )

[sub_resource type="AtlasTexture" id=21]
flags = 4
atlas = ExtResource( 1 )
region = Rect2( 320, 320, 64, 64 )

[sub_resource type="AtlasTexture" id=22]
flags = 4
atlas = ExtResource( 1 )
region = Rect2( 384, 320, 64, 64 )

[sub_resource type="AtlasTexture" id=23]
flags = 4
atlas = ExtResource( 1 )
region = Rect2( 448, 320, 64, 64 )

[sub_resource type="AtlasTexture" id=24]
flags = 4
atlas = ExtResource( 1 )
region = Rect2( 0, 512, 64, 64 )

[sub_resource type="AtlasTexture" id=25]
flags = 4
atlas = ExtResource( 1 )
region = Rect2( 64, 512, 64, 64 )

[sub_resource type="AtlasTexture" id=26]
flags = 4
atlas = ExtResource( 1 )
region = Rect2( 128, 512, 64, 64 )

[sub_resource type="AtlasTexture" id=27]
flags = 4
atlas = ExtResource( 1 )
region = Rect2( 192, 512, 64, 64 )

[sub_resource type="AtlasTexture" id=28]
flags = 4
atlas = ExtResource( 1 )
region = Rect2( 256, 512, 64, 64 )

[sub_resource type="AtlasTexture" id=29]
flags = 4
atlas = ExtResource( 1 )
region = Rect2( 320, 512, 64, 64 )

[sub_resource type="AtlasTexture" id=30]
flags = 4
atlas = ExtResource( 1 )
region = Rect2( 384, 512, 64, 64 )

[sub_resource type="AtlasTexture" id=31]
flags = 4
atlas = ExtResource( 1 )
region = Rect2( 448, 512, 64, 64 )

[sub_resource type="AtlasTexture" id=32]
flags = 4
atlas = ExtResource( 1 )
region = Rect2( 512, 512, 64, 64 )

[sub_resource type="AtlasTexture" id=33]
flags = 4
atlas = ExtResource( 1 )
region = Rect2( 0, 1024, 64, 64 )

[sub_resource type="AtlasTexture" id=34]
flags = 4
atlas = ExtResource( 1 )
region = Rect2( 64, 1024, 64, 64 )

[sub_resource type="AtlasTexture" id=35]
flags = 4
atlas = ExtResource( 1 )
region = Rect2( 128, 1024, 64, 64 )

[sub_resource type="AtlasTexture" id=36]
flags = 4
atlas = ExtResource( 1 )
region = Rect2( 192, 1024, 64, 64 )

[sub_resource type="AtlasTexture" id=37]
flags = 4
atlas = ExtResource( 1 )
region = Rect2( 256, 1024, 64, 64 )

[sub_resource type="AtlasTexture" id=38]
flags = 4
atlas = ExtResource( 1 )
region = Rect2( 320, 1024, 64, 64 )

[sub_resource type="AtlasTexture" id=39]
flags = 4
atlas = ExtResource( 1 )
region = Rect2( 384, 1024, 64, 64 )

[sub_resource type="AtlasTexture" id=40]
flags = 4
atlas = ExtResource( 1 )
region = Rect2( 448, 1024, 64, 64 )

[sub_resource type="AtlasTexture" id=41]
flags = 4
atlas = ExtResource( 1 )
region = Rect2( 512, 1024, 64, 64 )

[sub_resource type="AtlasTexture" id=42]
flags = 4
atlas = ExtResource( 1 )
region = Rect2( 576, 1024, 64, 64 )

[sub_resource type="AtlasTexture" id=43]
flags = 4
atlas = ExtResource( 1 )
region = Rect2( 640, 1024, 64, 64 )

[sub_resource type="AtlasTexture" id=44]
flags = 4
atlas = ExtResource( 1 )
region = Rect2( 704, 1024, 64, 64 )

[sub_resource type="AtlasTexture" id=45]
flags = 4
atlas = ExtResource( 1 )
region = Rect2( 768, 1024, 64, 64 )

[sub_resource type="AtlasTexture" id=46]
flags = 4
atlas = ExtResource( 1 )
region = Rect2( 0, 576, 64, 64 )

[sub_resource type="AtlasTexture" id=47]
flags = 4
atlas = ExtResource( 1 )
region = Rect2( 64, 576, 64, 64 )

[sub_resource type="AtlasTexture" id=48]
flags = 4
atlas = ExtResource( 1 )
region = Rect2( 128, 576, 64, 64 )

[sub_resource type="AtlasTexture" id=49]
flags = 4
atlas = ExtResource( 1 )
region = Rect2( 192, 576, 64, 64 )

[sub_resource type="AtlasTexture" id=50]
flags = 4
atlas = ExtResource( 1 )
region = Rect2( 256, 576, 64, 64 )

[sub_resource type="AtlasTexture" id=51]
flags = 4
atlas = ExtResource( 1 )
region = Rect2( 320, 576, 64, 64 )

[sub_resource type="AtlasTexture" id=52]
flags = 4
atlas = ExtResource( 1 )
region = Rect2( 384, 576, 64, 64 )

[sub_resource type="AtlasTexture" id=53]
flags = 4
atlas = ExtResource( 1 )
region = Rect2( 448, 576, 64, 64 )

[sub_resource type="AtlasTexture" id=54]
flags = 4
atlas = ExtResource( 1 )
region = Rect2( 512, 576, 64, 64 )

[sub_resource type="AtlasTexture" id=55]
flags = 4
atlas = ExtResource( 1 )
region = Rect2( 0, 832, 64, 64 )

[sub_resource type="AtlasTexture" id=56]
flags = 4
atlas = ExtResource( 1 )
region = Rect2( 64, 832, 64, 64 )

[sub_resource type="AtlasTexture" id=57]
flags = 4
atlas = ExtResource( 1 )
region = Rect2( 128, 832, 64, 64 )

[sub_resource type="AtlasTexture" id=58]
flags = 4
atlas = ExtResource( 1 )
region = Rect2( 192, 832, 64, 64 )

[sub_resource type="AtlasTexture" id=59]
flags = 4
atlas = ExtResource( 1 )
region = Rect2( 256, 832, 64, 64 )

[sub_resource type="AtlasTexture" id=60]
flags = 4
atlas = ExtResource( 1 )
region = Rect2( 320, 832, 64, 64 )

[sub_resource type="AtlasTexture" id=61]
flags = 4
atlas = ExtResource( 1 )
region = Rect2( 0, 1088, 64, 64 )

[sub_resource type="AtlasTexture" id=62]
flags = 4
atlas = ExtResource( 1 )
region = Rect2( 64, 1088, 64, 64 )

[sub_resource type="AtlasTexture" id=63]
flags = 4
atlas = ExtResource( 1 )
region = Rect2( 128, 1088, 64, 64 )

[sub_resource type="AtlasTexture" id=64]
flags = 4
atlas = ExtResource( 1 )
region = Rect2( 192, 1088, 64, 64 )

[sub_resource type="AtlasTexture" id=65]
flags = 4
atlas = ExtResource( 1 )
region = Rect2( 256, 1088, 64, 64 )

[sub_resource type="AtlasTexture" id=66]
flags = 4
atlas = ExtResource( 1 )
region = Rect2( 320, 1088, 64, 64 )

[sub_resource type="AtlasTexture" id=67]
flags = 4
atlas = ExtResource( 1 )
region = Rect2( 384, 1088, 64, 64 )

[sub_resource type="AtlasTexture" id=68]
flags = 4
atlas = ExtResource( 1 )
region = Rect2( 448, 1088, 64, 64 )

[sub_resource type="AtlasTexture" id=69]
flags = 4
atlas = ExtResource( 1 )
region = Rect2( 512, 1088, 64, 64 )

[sub_resource type="AtlasTexture" id=70]
flags = 4
atlas = ExtResource( 1 )
region = Rect2( 576, 1088, 64, 64 )

[sub_resource type="AtlasTexture" id=71]
flags = 4
atlas = ExtResource( 1 )
region = Rect2( 640, 1088, 64, 64 )

[sub_resource type="AtlasTexture" id=72]
flags = 4
atlas = ExtResource( 1 )
region = Rect2( 704, 1088, 64, 64 )

[sub_resource type="AtlasTexture" id=73]
flags = 4
atlas = ExtResource( 1 )
region = Rect2( 768, 1088, 64, 64 )

[sub_resource type="AtlasTexture" id=74]
flags = 4
atlas = ExtResource( 1 )
region = Rect2( 0, 1280, 64, 64 )

[sub_resource type="AtlasTexture" id=75]
flags = 4
atlas = ExtResource( 1 )
region = Rect2( 64, 1280, 64, 64 )

[sub_resource type="AtlasTexture" id=76]
flags = 4
atlas = ExtResource( 1 )
region = Rect2( 128, 1280, 64, 64 )

[sub_resource type="AtlasTexture" id=77]
flags = 4
atlas = ExtResource( 1 )
region = Rect2( 192, 1280, 64, 64 )

[sub_resource type="AtlasTexture" id=78]
flags = 4
atlas = ExtResource( 1 )
region = Rect2( 256, 1280, 64, 64 )

[sub_resource type="AtlasTexture" id=79]
flags = 4
atlas = ExtResource( 1 )
region = Rect2( 320, 1280, 64, 64 )

[sub_resource type="AtlasTexture" id=80]
flags = 4
atlas = ExtResource( 1 )
region = Rect2( 0, 704, 64, 64 )

[sub_resource type="AtlasTexture" id=81]
flags = 4
atlas = ExtResource( 1 )
region = Rect2( 64, 704, 64, 64 )

[sub_resource type="AtlasTexture" id=82]
flags = 4
atlas = ExtResource( 1 )
region = Rect2( 128, 704, 64, 64 )

[sub_resource type="AtlasTexture" id=83]
flags = 4
atlas = ExtResource( 1 )
region = Rect2( 192, 704, 64, 64 )

[sub_resource type="AtlasTexture" id=84]
flags = 4
atlas = ExtResource( 1 )
region = Rect2( 256, 704, 64, 64 )

[sub_resource type="AtlasTexture" id=85]
flags = 4
atlas = ExtResource( 1 )
region = Rect2( 320, 704, 64, 64 )

[sub_resource type="AtlasTexture" id=86]
flags = 4
atlas = ExtResource( 1 )
region = Rect2( 384, 704, 64, 64 )

[sub_resource type="AtlasTexture" id=87]
flags = 4
atlas = ExtResource( 1 )
region = Rect2( 448, 704, 64, 64 )

[sub_resource type="AtlasTexture" id=88]
flags = 4
atlas = ExtResource( 1 )
region = Rect2( 512, 704, 64, 64 )

[sub_resource type="AtlasTexture" id=89]
flags = 4
atlas = ExtResource( 1 )
region = Rect2( 0, 896, 64, 64 )

[sub_resource type="AtlasTexture" id=90]
flags = 4
atlas = ExtResource( 1 )
region = Rect2( 64, 896, 64, 64 )

[sub_resource type="AtlasTexture" id=91]
flags = 4
atlas = ExtResource( 1 )
region = Rect2( 128, 896, 64, 64 )

[sub_resource type="AtlasTexture" id=92]
flags = 4
atlas = ExtResource( 1 )
region = Rect2( 192, 896, 64, 64 )

[sub_resource type="AtlasTexture" id=93]
flags = 4
atlas = ExtResource( 1 )
region = Rect2( 256, 896, 64, 64 )

[sub_resource type="AtlasTexture" id=94]
flags = 4
atlas = ExtResource( 1 )
region = Rect2( 320, 896, 64, 64 )

[sub_resource type="AtlasTexture" id=95]
flags = 4
atlas = ExtResource( 1 )
region = Rect2( 0, 640, 64, 64 )

[sub_resource type="AtlasTexture" id=96]
flags = 4
atlas = ExtResource( 1 )
region = Rect2( 0, 384, 64, 64 )

[sub_resource type="AtlasTexture" id=97]
flags = 4
atlas = ExtResource( 1 )
region = Rect2( 64, 384, 64, 64 )

[sub_resource type="AtlasTexture" id=98]
flags = 4
atlas = ExtResource( 1 )
region = Rect2( 128, 384, 64, 64 )

[sub_resource type="AtlasTexture" id=99]
flags = 4
atlas = ExtResource( 1 )
region = Rect2( 192, 384, 64, 64 )

[sub_resource type="AtlasTexture" id=100]
flags = 4
atlas = ExtResource( 1 )
region = Rect2( 256, 384, 64, 64 )

[sub_resource type="AtlasTexture" id=101]
flags = 4
atlas = ExtResource( 1 )
region = Rect2( 320, 384, 64, 64 )

[sub_resource type="AtlasTexture" id=102]
flags = 4
atlas = ExtResource( 1 )
region = Rect2( 384, 384, 64, 64 )

[sub_resource type="AtlasTexture" id=103]
flags = 4
atlas = ExtResource( 1 )
region = Rect2( 448, 384, 64, 64 )

[sub_resource type="AtlasTexture" id=104]
flags = 4
atlas = ExtResource( 1 )
region = Rect2( 0, 768, 64, 64 )

[sub_resource type="AtlasTexture" id=105]
flags = 4
atlas = ExtResource( 1 )
region = Rect2( 64, 768, 64, 64 )

[sub_resource type="AtlasTexture" id=106]
flags = 4
atlas = ExtResource( 1 )
region = Rect2( 128, 768, 64, 64 )

[sub_resource type="AtlasTexture" id=107]
flags = 4
atlas = ExtResource( 1 )
region = Rect2( 192, 768, 64, 64 )

[sub_resource type="AtlasTexture" id=108]
flags = 4
atlas = ExtResource( 1 )
region = Rect2( 256, 768, 64, 64 )

[sub_resource type="AtlasTexture" id=109]
flags = 4
atlas = ExtResource( 1 )
region = Rect2( 320, 768, 64, 64 )

[sub_resource type="AtlasTexture" id=110]
flags = 4
atlas = ExtResource( 1 )
region = Rect2( 0, 640, 64, 64 )

[sub_resource type="AtlasTexture" id=111]
flags = 4
atlas = ExtResource( 1 )
region = Rect2( 64, 640, 64, 64 )

[sub_resource type="AtlasTexture" id=112]
flags = 4
atlas = ExtResource( 1 )
region = Rect2( 128, 640, 64, 64 )

[sub_resource type="AtlasTexture" id=113]
flags = 4
atlas = ExtResource( 1 )
region = Rect2( 192, 640, 64, 64 )

[sub_resource type="AtlasTexture" id=114]
flags = 4
atlas = ExtResource( 1 )
region = Rect2( 256, 640, 64, 64 )

[sub_resource type="AtlasTexture" id=115]
flags = 4
atlas = ExtResource( 1 )
region = Rect2( 320, 640, 64, 64 )

[sub_resource type="AtlasTexture" id=116]
flags = 4
atlas = ExtResource( 1 )
region = Rect2( 384, 640, 64, 64 )

[sub_resource type="AtlasTexture" id=117]
flags = 4
atlas = ExtResource( 1 )
region = Rect2( 448, 640, 64, 64 )

[sub_resource type="AtlasTexture" id=118]
flags = 4
atlas = ExtResource( 1 )
region = Rect2( 512, 640, 64, 64 )

[sub_resource type="AtlasTexture" id=119]
flags = 4
atlas = ExtResource( 1 )
region = Rect2( 0, 256, 64, 64 )

[sub_resource type="AtlasTexture" id=120]
flags = 4
atlas = ExtResource( 1 )
region = Rect2( 64, 256, 64, 64 )

[sub_resource type="AtlasTexture" id=121]
flags = 4
atlas = ExtResource( 1 )
region = Rect2( 128, 256, 64, 64 )

[sub_resource type="AtlasTexture" id=122]
flags = 4
atlas = ExtResource( 1 )
region = Rect2( 192, 256, 64, 64 )

[sub_resource type="AtlasTexture" id=123]
flags = 4
atlas = ExtResource( 1 )
region = Rect2( 256, 256, 64, 64 )

[sub_resource type="AtlasTexture" id=124]
flags = 4
atlas = ExtResource( 1 )
region = Rect2( 320, 256, 64, 64 )

[sub_resource type="AtlasTexture" id=125]
flags = 4
atlas = ExtResource( 1 )
region = Rect2( 384, 256, 64, 64 )

[sub_resource type="AtlasTexture" id=126]
flags = 4
atlas = ExtResource( 1 )
region = Rect2( 448, 256, 64, 64 )

[sub_resource type="AtlasTexture" id=127]
flags = 4
atlas = ExtResource( 1 )
region = Rect2( 0, 704, 64, 64 )

[sub_resource type="AtlasTexture" id=128]
flags = 4
atlas = ExtResource( 1 )
region = Rect2( 0, 0, 64, 64 )

[sub_resource type="AtlasTexture" id=129]
flags = 4
atlas = ExtResource( 1 )
region = Rect2( 64, 0, 64, 64 )

[sub_resource type="AtlasTexture" id=130]
flags = 4
atlas = ExtResource( 1 )
region = Rect2( 128, 0, 64, 64 )

[sub_resource type="AtlasTexture" id=131]
flags = 4
atlas = ExtResource( 1 )
region = Rect2( 192, 0, 64, 64 )

[sub_resource type="AtlasTexture" id=132]
flags = 4
atlas = ExtResource( 1 )
region = Rect2( 256, 0, 64, 64 )

[sub_resource type="AtlasTexture" id=133]
flags = 4
atlas = ExtResource( 1 )
region = Rect2( 320, 0, 64, 64 )

[sub_resource type="AtlasTexture" id=134]
flags = 4
atlas = ExtResource( 1 )
region = Rect2( 384, 0, 64, 64 )

[sub_resource type="AtlasTexture" id=135]
flags = 4
atlas = ExtResource( 1 )
region = Rect2( 0, 960, 64, 64 )

[sub_resource type="AtlasTexture" id=136]
flags = 4
atlas = ExtResource( 1 )
region = Rect2( 64, 960, 64, 64 )

[sub_resource type="AtlasTexture" id=137]
flags = 4
atlas = ExtResource( 1 )
region = Rect2( 128, 960, 64, 64 )

[sub_resource type="AtlasTexture" id=138]
flags = 4
atlas = ExtResource( 1 )
region = Rect2( 192, 960, 64, 64 )

[sub_resource type="AtlasTexture" id=139]
flags = 4
atlas = ExtResource( 1 )
region = Rect2( 256, 960, 64, 64 )

[sub_resource type="AtlasTexture" id=140]
flags = 4
atlas = ExtResource( 1 )
region = Rect2( 320, 960, 64, 64 )

[sub_resource type="AtlasTexture" id=141]
flags = 4
atlas = ExtResource( 1 )
region = Rect2( 0, 1216, 64, 64 )

[sub_resource type="AtlasTexture" id=142]
flags = 4
atlas = ExtResource( 1 )
region = Rect2( 64, 1216, 64, 64 )

[sub_resource type="AtlasTexture" id=143]
flags = 4
atlas = ExtResource( 1 )
region = Rect2( 128, 1216, 64, 64 )

[sub_resource type="AtlasTexture" id=144]
flags = 4
atlas = ExtResource( 1 )
region = Rect2( 192, 1216, 64, 64 )

[sub_resource type="AtlasTexture" id=145]
flags = 4
atlas = ExtResource( 1 )
region = Rect2( 256, 1216, 64, 64 )

[sub_resource type="AtlasTexture" id=146]
flags = 4
atlas = ExtResource( 1 )
region = Rect2( 320, 1216, 64, 64 )

[sub_resource type="AtlasTexture" id=147]
flags = 4
atlas = ExtResource( 1 )
region = Rect2( 384, 1216, 64, 64 )

[sub_resource type="AtlasTexture" id=148]
flags = 4
atlas = ExtResource( 1 )
region = Rect2( 448, 1216, 64, 64 )

[sub_resource type="AtlasTexture" id=149]
flags = 4
atlas = ExtResource( 1 )
region = Rect2( 512, 1216, 64, 64 )

[sub_resource type="AtlasTexture" id=150]
flags = 4
atlas = ExtResource( 1 )
region = Rect2( 576, 1216, 64, 64 )

[sub_resource type="AtlasTexture" id=151]
flags = 4
atlas = ExtResource( 1 )
region = Rect2( 640, 1216, 64, 64 )

[sub_resource type="AtlasTexture" id=152]
flags = 4
atlas = ExtResource( 1 )
region = Rect2( 704, 1216, 64, 64 )

[sub_resource type="AtlasTexture" id=153]
flags = 4
atlas = ExtResource( 1 )
region = Rect2( 768, 1216, 64, 64 )

[sub_resource type="AtlasTexture" id=154]
flags = 4
atlas = ExtResource( 1 )
region = Rect2( 0, 576, 64, 64 )

[sub_resource type="AtlasTexture" id=155]
flags = 4
atlas = ExtResource( 1 )
region = Rect2( 0, 448, 64, 64 )

[sub_resource type="AtlasTexture" id=156]
flags = 4
atlas = ExtResource( 1 )
region = Rect2( 64, 448, 64, 64 )

[sub_resource type="AtlasTexture" id=157]
flags = 4
atlas = ExtResource( 1 )
region = Rect2( 128, 448, 64, 64 )

[sub_resource type="AtlasTexture" id=158]
flags = 4
atlas = ExtResource( 1 )
region = Rect2( 192, 448, 64, 64 )

[sub_resource type="AtlasTexture" id=159]
flags = 4
atlas = ExtResource( 1 )
region = Rect2( 256, 448, 64, 64 )

[sub_resource type="AtlasTexture" id=160]
flags = 4
atlas = ExtResource( 1 )
region = Rect2( 320, 448, 64, 64 )

[sub_resource type="AtlasTexture" id=161]
flags = 4
atlas = ExtResource( 1 )
region = Rect2( 384, 448, 64, 64 )

[sub_resource type="AtlasTexture" id=162]
flags = 4
atlas = ExtResource( 1 )
region = Rect2( 448, 448, 64, 64 )

[sub_resource type="AtlasTexture" id=163]
flags = 4
atlas = ExtResource( 1 )
region = Rect2( 0, 1152, 64, 64 )

[sub_resource type="AtlasTexture" id=164]
flags = 4
atlas = ExtResource( 1 )
region = Rect2( 64, 1152, 64, 64 )

[sub_resource type="AtlasTexture" id=165]
flags = 4
atlas = ExtResource( 1 )
region = Rect2( 128, 1152, 64, 64 )

[sub_resource type="AtlasTexture" id=166]
flags = 4
atlas = ExtResource( 1 )
region = Rect2( 192, 1152, 64, 64 )

[sub_resource type="AtlasTexture" id=167]
flags = 4
atlas = ExtResource( 1 )
region = Rect2( 256, 1152, 64, 64 )

[sub_resource type="AtlasTexture" id=168]
flags = 4
atlas = ExtResource( 1 )
region = Rect2( 320, 1152, 64, 64 )

[sub_resource type="AtlasTexture" id=169]
flags = 4
atlas = ExtResource( 1 )
region = Rect2( 384, 1152, 64, 64 )

[sub_resource type="AtlasTexture" id=170]
flags = 4
atlas = ExtResource( 1 )
region = Rect2( 448, 1152, 64, 64 )

[sub_resource type="AtlasTexture" id=171]
flags = 4
atlas = ExtResource( 1 )
region = Rect2( 512, 1152, 64, 64 )

[sub_resource type="AtlasTexture" id=172]
flags = 4
atlas = ExtResource( 1 )
region = Rect2( 576, 1152, 64, 64 )

[sub_resource type="AtlasTexture" id=173]
flags = 4
atlas = ExtResource( 1 )
region = Rect2( 640, 1152, 64, 64 )

[sub_resource type="AtlasTexture" id=174]
flags = 4
atlas = ExtResource( 1 )
region = Rect2( 704, 1152, 64, 64 )

[sub_resource type="AtlasTexture" id=175]
flags = 4
atlas = ExtResource( 1 )
region = Rect2( 768, 1152, 64, 64 )

[sub_resource type="AtlasTexture" id=176]
flags = 4
atlas = ExtResource( 1 )
region = Rect2( 0, 64, 64, 64 )

[sub_resource type="AtlasTexture" id=177]
flags = 4
atlas = ExtResource( 1 )
region = Rect2( 64, 64, 64, 64 )

[sub_resource type="AtlasTexture" id=178]
flags = 4
atlas = ExtResource( 1 )
region = Rect2( 128, 64, 64, 64 )

[sub_resource type="AtlasTexture" id=179]
flags = 4
atlas = ExtResource( 1 )
region = Rect2( 192, 64, 64, 64 )

[sub_resource type="AtlasTexture" id=180]
flags = 4
atlas = ExtResource( 1 )
region = Rect2( 256, 64, 64, 64 )

[sub_resource type="AtlasTexture" id=181]
flags = 4
atlas = ExtResource( 1 )
region = Rect2( 320, 64, 64, 64 )

[sub_resource type="AtlasTexture" id=182]
flags = 4
atlas = ExtResource( 1 )
region = Rect2( 384, 64, 64, 64 )

[sub_resource type="SpriteFrames" id=183]
animations = [ {
"frames": [ SubResource( 1 ) ],
"loop": true,
"name": "Idle_Back",
"speed": 5.0
}, {
"frames": [ SubResource( 2 ), SubResource( 3 ), SubResource( 4 ), SubResource( 5 ), SubResource( 6 ), SubResource( 7 ), SubResource( 8 ) ],
"loop": true,
"name": "Spell_Front",
"speed": 5.0
}, {
"frames": [ SubResource( 9 ), SubResource( 10 ), SubResource( 11 ), SubResource( 12 ), SubResource( 13 ), SubResource( 14 ), SubResource( 15 ) ],
"loop": true,
"name": "Spell_Right",
"speed": 5.0
}, {
"frames": [ SubResource( 16 ), SubResource( 17 ), SubResource( 18 ), SubResource( 19 ), SubResource( 20 ), SubResource( 21 ), SubResource( 22 ), SubResource( 23 ) ],
"loop": true,
"name": "Thrust_Left",
"speed": 5.0
}, {
"frames": [ SubResource( 24 ), SubResource( 25 ), SubResource( 26 ), SubResource( 27 ), SubResource( 28 ), SubResource( 29 ), SubResource( 30 ), SubResource( 31 ), SubResource( 32 ) ],
"loop": true,
"name": "Walk_Back",
"speed": 5.0
}, {
"frames": [ SubResource( 33 ), SubResource( 34 ), SubResource( 35 ), SubResource( 36 ), SubResource( 37 ), SubResource( 38 ), SubResource( 39 ), SubResource( 40 ), SubResource( 41 ), SubResource( 42 ), SubResource( 43 ), SubResource( 44 ), SubResource( 45 ) ],
"loop": true,
"name": "Shoot_Back",
"speed": 5.0
}, {
"frames": [ SubResource( 46 ), SubResource( 47 ), SubResource( 48 ), SubResource( 49 ), SubResource( 50 ), SubResource( 51 ), SubResource( 52 ), SubResource( 53 ), SubResource( 54 ) ],
"loop": true,
"name": "Walk_Left",
"speed": 5.0
}, {
"frames": [ SubResource( 55 ), SubResource( 56 ), SubResource( 57 ), SubResource( 58 ), SubResource( 59 ), SubResource( 60 ) ],
"loop": true,
"name": "Slash_Left",
"speed": 5.0
}, {
"frames": [ SubResource( 61 ), SubResource( 62 ), SubResource( 63 ), SubResource( 64 ), SubResource( 65 ), SubResource( 66 ), SubResource( 67 ), SubResource( 68 ), SubResource( 69 ), SubResource( 70 ), SubResource( 71 ), SubResource( 72 ), SubResource( 73 ) ],
"loop": true,
"name": "Shoot_Left",
"speed": 5.0
}, {
"frames": [ SubResource( 74 ), SubResource( 75 ), SubResource( 76 ), SubResource( 77 ), SubResource( 78 ), SubResource( 79 ) ],
"loop": true,
"name": "Hit",
"speed": 5.0
}, {
"frames": [ SubResource( 80 ), SubResource( 81 ), SubResource( 82 ), SubResource( 83 ), SubResource( 84 ), SubResource( 85 ), SubResource( 86 ), SubResource( 87 ), SubResource( 88 ) ],
"loop": true,
"name": "Walk_Right",
"speed": 5.0
}, {
"frames": [ SubResource( 89 ), SubResource( 90 ), SubResource( 91 ), SubResource( 92 ), SubResource( 93 ), SubResource( 94 ) ],
"loop": true,
"name": "Slash_Front",
"speed": 5.0
}, {
"frames": [ SubResource( 95 ) ],
"loop": true,
"name": "Idle_Front",
"speed": 5.0
}, {
"frames": [ SubResource( 96 ), SubResource( 97 ), SubResource( 98 ), SubResource( 99 ), SubResource( 100 ), SubResource( 101 ), SubResource( 102 ), SubResource( 103 ) ],
"loop": true,
"name": "Thrust_Front",
"speed": 5.0
}, {
"frames": [ SubResource( 104 ), SubResource( 105 ), SubResource( 106 ), SubResource( 107 ), SubResource( 108 ), SubResource( 109 ) ],
"loop": true,
"name": "Slash_Back",
"speed": 5.0
}, {
"frames": [ SubResource( 110 ), SubResource( 111 ), SubResource( 112 ), SubResource( 113 ), SubResource( 114 ), SubResource( 115 ), SubResource( 116 ), SubResource( 117 ), SubResource( 118 ) ],
"loop": true,
"name": "Walk_Front",
"speed": 5.0
}, {
"frames": [ SubResource( 119 ), SubResource( 120 ), SubResource( 121 ), SubResource( 122 ), SubResource( 123 ), SubResource( 124 ), SubResource( 125 ), SubResource( 126 ) ],
"loop": true,
"name": "Thrust_Back",
"speed": 5.0
}, {
"frames": [ SubResource( 127 ) ],
"loop": true,
"name": "Idle_Right",
"speed": 5.0
}, {
"frames": [ SubResource( 128 ), SubResource( 129 ), SubResource( 130 ), SubResource( 131 ), SubResource( 132 ), SubResource( 133 ), SubResource( 134 ) ],
"loop": true,
"name": "Spell_Back",
"speed": 5.0
}, {
"frames": [ SubResource( 135 ), SubResource( 136 ), SubResource( 137 ), SubResource( 138 ), SubResource( 139 ), SubResource( 140 ) ],
"loop": true,
"name": "Slash_Right",
"speed": 5.0
}, {
"frames": [ SubResource( 141 ), SubResource( 142 ), SubResource( 143 ), SubResource( 144 ), SubResource( 145 ), SubResource( 146 ), SubResource( 147 ), SubResource( 148 ), SubResource( 149 ), SubResource( 150 ), SubResource( 151 ), SubResource( 152 ), SubResource( 153 ) ],
"loop": true,
"name": "Shoot_Right",
"speed": 5.0
}, {
"frames": [ SubResource( 154 ) ],
"loop": true,
"name": "Idle_Left",
"speed": 5.0
}, {
"frames": [ SubResource( 155 ), SubResource( 156 ), SubResource( 157 ), SubResource( 158 ), SubResource( 159 ), SubResource( 160 ), SubResource( 161 ), SubResource( 162 ) ],
"loop": true,
"name": "Thrust_Right",
"speed": 5.0
}, {
"frames": [ SubResource( 163 ), SubResource( 164 ), SubResource( 165 ), SubResource( 166 ), SubResource( 167 ), SubResource( 168 ), SubResource( 169 ), SubResource( 170 ), SubResource( 171 ), SubResource( 172 ), SubResource( 173 ), SubResource( 174 ), SubResource( 175 ) ],
"loop": true,
"name": "Shoot_Front",
"speed": 5.0
}, {
"frames": [ SubResource( 176 ), SubResource( 177 ), SubResource( 178 ), SubResource( 179 ), SubResource( 180 ), SubResource( 181 ), SubResource( 182 ) ],
"loop": true,
"name": "Spell_Left",
"speed": 5.0
} ]

[sub_resource type="CapsuleShape2D" id=184]
radius = 15.0006
height = 20.3986

[node name="Player" type="KinematicBody2D"]
script = ExtResource( 2 )

[node name="AnimatedSprite" type="AnimatedSprite" parent="."]
frames = SubResource( 183 )
animation = "Idle_Front"
playing = true

[node name="CollisionShape2D" type="CollisionShape2D" parent="."]
position = Vector2( 0.25, 8 )
shape = SubResource( 184 )

[node name="RayCast2D" type="RayCast2D" parent="."]
enabled = true
